Exponential Smoothing on Australian Wine Dataset
…
    # ── Smoothing models (Ch5) ──
    ses      = ETS(Red ~ error("A") + trend("N") + season("N")),     # Simple Exponential Smoothing: level only
    holt     = ETS(Red ~ error("A") + trend("A") + season("N")),     # Holt's Linear: level + trend
    hw_add   = ETS(Red ~ error("A") + trend("A") + season("A")),     # Holt-Winters Additive
    hw_mult  = ETS(Red ~ error("A") + trend("A") + season("M")),     # Holt-Winters Multiplicative
    hw_damped= ETS(Red ~ error("A") + trend("Ad") + season("M"))     # HW Multiplicative + Damped trend
  )

# ── View all fitted parameters ───────────────────────────────────────────────
fit |>
  tidy() |>
  print(n = 50)

## # A tibble: 58 × 6
##    .model    term      estimate std.error statistic p.value
##    <chr>     <chr>        <dbl>     <dbl>     <dbl>   <dbl>
##  1 ses       alpha     0.588           NA        NA      NA
##  2 ses       l[0]    574.              NA        NA      NA
##  3 holt      alpha     0.581           NA        NA      NA
##  4 holt      beta      0.000100        NA        NA      NA
##  5 holt      l[0]    668.              NA        NA      NA
##  6 holt      b[0]     11.0             NA        NA      NA
##  7 hw_add    alpha     0.115           NA        NA      NA
##  8 hw_add    beta      0.000100        NA        NA      NA
##  9 hw_add    gamma     0.000100        NA        NA      NA
## 10 hw_add    l[0]   1016.              NA        NA      NA
## 11 hw_add    b[0]      7.43            NA        NA      NA
## 12 hw_add    s[0]    184.              NA        NA      NA
## 13 hw_add    s[-1]    67.3             NA        NA      NA
## 14 hw_add    s[-2]   -67.5             NA        NA      NA
## 15 hw_add    s[-3]   108.              NA        NA      NA
## 16 hw_add    s[-4]   473.              NA        NA      NA
## 17 hw_add    s[-5]   524.              NA        NA      NA
## 18 hw_add    s[-6]   131.              NA        NA      NA
## 19 hw_add    s[-7]    97.2             NA        NA      NA
## 20 hw_add    s[-8]  -113.              NA        NA      NA
## 21 hw_add    s[-9]  -219.              NA        NA      NA
## 22 hw_add    s[-10] -457.              NA        NA      NA
## 23 hw_add    s[-11] -727.              NA        NA      NA
## 24 hw_mult   alpha     0.174           NA        NA      NA
## 25 hw_mult   beta      0.000101        NA        NA      NA
## 26 hw_mult   gamma     0.000106        NA        NA      NA
## 27 hw_mult   l[0]    931.              NA        NA      NA
## 28 hw_mult   b[0]      7.25            NA        NA      NA
## 29 hw_mult   s[0]      1.12            NA        NA      NA
## 30 hw_mult   s[-1]     1.05            NA        NA      NA
## 31 hw_mult   s[-2]     0.950           NA        NA      NA
## 32 hw_mult   s[-3]     1.04            NA        NA      NA
## 33 hw_mult   s[-4]     1.33            NA        NA      NA
## 34 hw_mult   s[-5]     1.31            NA        NA      NA
## 35 hw_mult   s[-6]     1.07            NA        NA      NA
## 36 hw_mult   s[-7]     1.06            NA        NA      NA
## 37 hw_mult   s[-8]     0.924           NA        NA      NA
## 38 hw_mult   s[-9]     0.868           NA        NA      NA
## 39 hw_mult   s[-10]    0.749           NA        NA      NA
## 40 hw_mult   s[-11]    0.525           NA        NA      NA
## 41 hw_damped alpha     0.177           NA        NA      NA
## 42 hw_damped beta      0.00379         NA        NA      NA
## 43 hw_damped gamma     0.000101        NA        NA      NA
## 44 hw_damped phi       0.975           NA        NA      NA
## 45 hw_damped l[0]    931.              NA        NA      NA
## 46 hw_damped b[0]      7.21            NA        NA      NA
## 47 hw_damped s[0]      1.13            NA        NA      NA
## 48 hw_damped s[-1]     1.04            NA        NA      NA
## 49 hw_damped s[-2]     0.961           NA        NA      NA
## 50 hw_damped s[-3]     1.04            NA        NA      NA
## # ℹ 8 more rows
…
